<?xml version="1.0" encoding="utf-8"?>
<!-- Generator: Adobe Illustrator 26.3.1, SVG Export Plug-In . SVG Version: 6.00 Build 0)  -->
<svg version="1.1" id="Ebene_1" xmlns="http://www.w3.org/2000/svg" xmlns:xlink="http://www.w3.org/1999/xlink" x="0px" y="0px"
	 viewBox="0 0 108 108" style="enable-background:new 0 0 108 108;" xml:space="preserve">
<style type="text/css">
	.st0{clip-path:url(#SVGID_00000136394741819508256870000018284763021801772951_);}
	.st1{fill:#BFBFBF;stroke:#FFFAEE;stroke-width:2;stroke-linecap:round;stroke-linejoin:round;stroke-miterlimit:10;}
	.st2{fill:#D1B98B;stroke:#FFFAEE;stroke-width:2;stroke-linecap:round;stroke-linejoin:round;stroke-miterlimit:10;}
	.st3{fill:#8BBB74;stroke:#FFFAEE;stroke-width:2;stroke-linecap:round;stroke-linejoin:round;stroke-miterlimit:10;}
	
		.st4{clip-path:url(#SVGID_00000136394741819508256870000018284763021801772951_);fill:#D1B98B;stroke:#FFFAEE;stroke-width:2;stroke-linecap:round;stroke-linejoin:round;stroke-miterlimit:10;}
	.st5{fill:#FFFFFF;}
	.st6{fill:none;stroke:#FFFFFF;stroke-width:2;stroke-linecap:round;stroke-linejoin:round;stroke-miterlimit:10;}
	.st7{fill:#FFFFFF;stroke:#323030;stroke-linecap:round;stroke-linejoin:round;stroke-miterlimit:10;}
	.st8{fill:#FFFAEE;stroke:#323030;stroke-linecap:round;stroke-linejoin:round;stroke-miterlimit:10;}
</style>
<g>
	<defs>
		<circle id="SVGID_1_" cx="54" cy="54" r="54"/>
	</defs>
	<use xlink:href="#SVGID_1_"  style="overflow:visible;fill:#FFFAEE;"/>
	<clipPath id="SVGID_00000159440403231171763560000005264428505093934768_">
		<use xlink:href="#SVGID_1_"  style="overflow:visible;"/>
	</clipPath>
	<g style="clip-path:url(#SVGID_00000159440403231171763560000005264428505093934768_);">
		<path class="st1" d="M17.3,80.5c0-2.7-2.2-4.8-4.8-4.8c-2.7,0-4.8,2.2-4.8,4.8v21.3h0c0,0,0,0,0,0.1c0,0.9,2.2,1.7,4.8,1.7
			c2.7,0,4.8-0.8,4.8-1.7c0,0,0,0,0-0.1h0V80.5z"/>
		<path class="st1" d="M27.2,80.4c-0.1-2.7-2.3-4.8-4.9-4.7c-2.7,0.1-4.8,2.3-4.7,4.9l0.3,21.3l0,0c0,0,0,0,0,0.1
			c0,0.9,2.2,1.6,4.9,1.6c2.7-0.1,4.8-0.9,4.8-1.8c0,0,0,0,0-0.1l0,0L27.2,80.4z"/>
		<path class="st1" d="M31.6,55.1c-1.5-2-4.4-2.4-6.4-0.9c-2,1.5-2.4,4.4-0.9,6.4l6.5,8.6l0,0c0,0,0,0,0,0c0.5,0.7,2.6,0.1,4.6-1.5
			c2-1.5,3.2-3.3,2.7-4.1c0,0,0,0,0,0l0,0L31.6,55.1z"/>
		<path class="st1" d="M10.2,60.7c1.2-2.2,0.3-5-1.9-6.2c-2.2-1.2-5-0.3-6.2,1.9L-3,65.9l0,0c0,0,0,0,0,0c-0.4,0.8,1.1,2.4,3.3,3.6
			c2.2,1.2,4.4,1.5,4.8,0.7c0,0,0,0,0,0l0,0L10.2,60.7z"/>
		<path class="st1" d="M27.3,60.4c0-5.4-4.4-9.8-9.8-9.8c-5.4,0-9.8,4.4-9.8,9.8v17.3h0c0,0,0,0.1,0,0.1c0,1.9,4.4,3.5,9.8,3.5
			c5.4,0,9.8-1.6,9.8-3.5c0,0,0-0.1,0-0.1h0V60.4z"/>
		<circle class="st2" cx="16.9" cy="44.8" r="9"/>
	</g>
	<g style="clip-path:url(#SVGID_00000159440403231171763560000005264428505093934768_);">
		<path class="st1" d="M51.3,57.5c0-2.7-2.2-4.8-4.8-4.8c-2.7,0-4.8,2.2-4.8,4.8v21.3h0c0,0,0,0,0,0.1c0,0.9,2.2,1.7,4.8,1.7
			c2.7,0,4.8-0.8,4.8-1.7c0,0,0,0,0-0.1h0V57.5z"/>
		<path class="st1" d="M61.2,57.4c-0.1-2.7-2.3-4.8-4.9-4.7c-2.7,0.1-4.8,2.3-4.7,4.9l0.3,21.3l0,0c0,0,0,0,0,0.1
			c0,0.9,2.2,1.6,4.9,1.6c2.7-0.1,4.8-0.9,4.8-1.8c0,0,0,0,0-0.1l0,0L61.2,57.4z"/>
		<path class="st3" d="M65.6,32.1c-1.5-2-4.4-2.4-6.4-0.9c-2,1.5-2.4,4.4-0.9,6.4l6.5,8.6l0,0c0,0,0,0,0,0c0.5,0.7,2.6,0.1,4.6-1.5
			c2-1.5,3.2-3.3,2.7-4.1c0,0,0,0,0,0l0,0L65.6,32.1z"/>
		<path class="st3" d="M44.2,37.7c1.2-2.2,0.3-5-1.9-6.2c-2.2-1.2-5-0.3-6.2,1.9L31,42.9l0,0c0,0,0,0,0,0c-0.4,0.8,1.1,2.4,3.3,3.6
			c2.2,1.2,4.4,1.5,4.8,0.7c0,0,0,0,0,0l0,0L44.2,37.7z"/>
		<path class="st3" d="M61.3,37.4c0-5.4-4.4-9.8-9.8-9.8c-5.4,0-9.8,4.4-9.8,9.8v17.3h0c0,0,0,0.1,0,0.1c0,1.9,4.4,3.5,9.8,3.5
			c5.4,0,9.8-1.6,9.8-3.5c0,0,0-0.1,0-0.1h0V37.4z"/>
		<circle class="st2" cx="50.9" cy="21.8" r="9"/>
	</g>
	
		<circle style="clip-path:url(#SVGID_00000159440403231171763560000005264428505093934768_);fill:#D1B98B;stroke:#FFFAEE;stroke-width:2;stroke-linecap:round;stroke-linejoin:round;stroke-miterlimit:10;" cx="34.5" cy="67.5" r="4.5"/>
	<g style="clip-path:url(#SVGID_00000159440403231171763560000005264428505093934768_);">
		<g>
			
				<image style="overflow:visible;opacity:0.25;" width="54" height="67" xlink:href="B5E68986A10DDBD2.png"  transform="matrix(1 0 0 1 24 32)">
			</image>
			<g>
				<rect x="34.3" y="42" class="st5" width="33.7" height="46.9"/>
				<rect x="34.3" y="42" class="st6" width="33.7" height="46.9"/>
			</g>
		</g>
		<rect x="40.5" y="48.1" class="st7" width="21.3" height="5.8"/>
		<g>
			<rect x="40.5" y="60.6" class="st8" width="2.8" height="2.8"/>
			<line class="st8" x1="60.9" y1="62" x2="49" y2="62"/>
		</g>
		<g>
			<rect x="40.5" y="69.5" class="st8" width="2.8" height="2.8"/>
			<line class="st8" x1="60.9" y1="70.9" x2="49" y2="70.9"/>
		</g>
		<g>
			<rect x="40.5" y="78.4" class="st8" width="2.8" height="2.8"/>
			<line class="st8" x1="60.9" y1="79.8" x2="49" y2="79.8"/>
		</g>
	</g>
	
		<circle style="clip-path:url(#SVGID_00000159440403231171763560000005264428505093934768_);fill:#D1B98B;stroke:#FFFAEE;stroke-width:2;stroke-linecap:round;stroke-linejoin:round;stroke-miterlimit:10;" cx="42.2" cy="42" r="3"/>
	
		<circle style="clip-path:url(#SVGID_00000159440403231171763560000005264428505093934768_);fill:#D1B98B;stroke:#FFFAEE;stroke-width:2;stroke-linecap:round;stroke-linejoin:round;stroke-miterlimit:10;" cx="60.2" cy="42" r="3"/>
	<g style="clip-path:url(#SVGID_00000159440403231171763560000005264428505093934768_);">
		<path class="st1" d="M90.3,80.5c0-2.7-2.2-4.8-4.8-4.8c-2.7,0-4.8,2.2-4.8,4.8v21.3h0c0,0,0,0,0,0.1c0,0.9,2.2,1.7,4.8,1.7
			c2.7,0,4.8-0.8,4.8-1.7c0,0,0,0,0-0.1h0V80.5z"/>
		<path class="st1" d="M100.2,80.4c-0.1-2.7-2.3-4.8-4.9-4.7c-2.7,0.1-4.8,2.3-4.7,4.9l0.3,21.3l0,0c0,0,0,0,0,0.1
			c0,0.9,2.2,1.6,4.9,1.6c2.7-0.1,4.8-0.9,4.8-1.8c0,0,0,0,0-0.1l0,0L100.2,80.4z"/>
		<path class="st1" d="M104.6,55.1c-1.5-2-4.4-2.4-6.4-0.9c-2,1.5-2.4,4.4-0.9,6.4l6.5,8.6l0,0c0,0,0,0,0,0c0.5,0.7,2.6,0.1,4.6-1.5
			c2-1.5,3.2-3.3,2.7-4.1c0,0,0,0,0,0l0,0L104.6,55.1z"/>
		<path class="st1" d="M83.2,60.7c1.2-2.2,0.3-5-1.9-6.2c-2.2-1.2-5-0.3-6.2,1.9L70,65.9l0,0c0,0,0,0,0,0c-0.4,0.8,1.1,2.4,3.3,3.6
			c2.2,1.2,4.4,1.5,4.8,0.7c0,0,0,0,0,0l0,0L83.2,60.7z"/>
		<path class="st1" d="M100.3,60.4c0-5.4-4.4-9.8-9.8-9.8c-5.4,0-9.8,4.4-9.8,9.8v17.3h0c0,0,0,0.1,0,0.1c0,1.9,4.4,3.5,9.8,3.5
			c5.4,0,9.8-1.6,9.8-3.5c0,0,0-0.1,0-0.1h0V60.4z"/>
		<circle class="st2" cx="89.9" cy="44.8" r="9"/>
	</g>
</g>
</svg>
